…
# ... and discrete outcomes
model <- rpart(Species ~ Sepal.Width + Sepal.Length, data = iris)

tidy_tree(model, add_interval = T, interval_level = .89)
#> # A tibble: 24 x 9
#>    rule              id n.obs depth terminal estimate conf.low conf.high y.level
#>    <chr>          <dbl> <int> <dbl> <lgl>       <dbl>    <dbl>     <dbl> <chr>  
#>  1 Sepal.Length …     2    52     1 FALSE      0.865   0.765      0.934  setosa 
#>  2 Sepal.Length …     2    52     1 FALSE      0.115   0.0527     0.212  versic…
#>  3 Sepal.Length …     2    52     1 FALSE      0.0192  0.00109    0.0860 virgin…
#>  4 Sepal.Length …     4    45     2 TRUE       0.978   0.901      0.999  setosa 
#>  5 Sepal.Length …     4    45     2 TRUE       0.0222  0.00126    0.0988 versic…
#>  6 Sepal.Length …     4    45     2 TRUE       0       0          0.0624 virgin…
#>  7 Sepal.Length …     5     7     2 TRUE       0.143   0.00805    0.512  setosa 
#>  8 Sepal.Length …     5     7     2 TRUE       0.714   0.349      0.944  versic…
#>  9 Sepal.Length …     5     7     2 TRUE       0.143   0.00805    0.512  virgin…
#> 10 Sepal.Length …     3    98     1 FALSE      0.0510  0.0209     0.103  setosa 
#> # … with 14 more rows
```
…
# Bayesian regularized credibility intervals for discrete outcomes
model <- rpart(Species ~ Sepal.Width + Sepal.Length, data = iris)

tidy_tree(model, add_interval = T, est_fun = function(values, add_interval, interval_level) {
    table(values) %>%
        lapply(function(cases) {
            qbeta(
                c(.5, (1 - interval_level) / 2, .5 + interval_level/2),
                cases + 1.1,
                length(values) - cases + 1.1
            ) %>% matrix(nrow = 1) %>% as.data.frame() %>% 
                setNames(c('estimate', 'cred.low', 'cred.high'))
        }) %>% bind_rows()
})
#> # A tibble: 24 x 8
#>    rule                      id n.obs depth terminal estimate cred.low cred.high
#>    <chr>                  <dbl> <int> <dbl> <lgl>       <dbl>    <dbl>     <dbl>
#>  1 Sepal.Length < 5.45        2    52     1 FALSE      0.855  0.745       0.931 
#>  2 Sepal.Length < 5.45        2    52     1 FALSE      0.126  0.0558      0.232 
#>  3 Sepal.Length < 5.45        2    52     1 FALSE      0.0332 0.00519     0.103 
#>  4 Sepal.Length < 5.45 &…     4    45     2 TRUE       0.962  0.882       0.994 
#>  5 Sepal.Length < 5.45 &…     4    45     2 TRUE       0.0382 0.00599     0.118 
#>  6 Sepal.Length < 5.45 &…     4    45     2 TRUE       0.0170 0.000803    0.0810
#>  7 Sepal.Length < 5.45 &…     5     7     2 TRUE       0.208  0.0353      0.531 
#>  8 Sepal.Length < 5.45 &…     5     7     2 TRUE       0.675  0.349       0.911 
#>  9 Sepal.Length < 5.45 &…     5     7     2 TRUE       0.208  0.0353      0.531 
#> 10 Sepal.Length >= 5.45       3    98     1 FALSE      0.0580 0.0231      0.115 
#> # … with 14 more rows
```
